mux241/mux241.vcd
$version Generated by VerilatedVcd $end
$timescale 1s $end

 $scope module TOP $end
  $var wire  2 6 f [1:0] $end
  $var wire  2 1 x0 [1:0] $end
  $var wire  2 2 x1 [1:0] $end
  $var wire  2 3 x2 [1:0] $end
  $var wire  2 4 x3 [1:0] $end
  $var wire  2 5 y [1:0] $end
  $scope module mux241 $end
   $var wire  2 6 f [1:0] $end
   $var wire  2 1 x0 [1:0] $end
   $var wire  2 2 x1 [1:0] $end
   $var wire  2 3 x2 [1:0] $end
   $var wire  2 4 x3 [1:0] $end
   $var wire  2 5 y [1:0] $end
   $scope module i0 $end
    $var wire 32 9 DATA_LEN [31:0] $end
    $var wire 32 9 KEY_LEN [31:0] $end
    $var wire 32 8 NR_KEY [31:0] $end
    $var wire  2 5 key [1:0] $end
    $var wire 16 7 lut [15:0] $end
    $var wire  2 6 out [1:0] $end
    $scope module i0 $end
     $var wire 32 9 DATA_LEN [31:0] $end
     $var wire 32 : HAS_DEFAULT [31:0] $end
     $var wire 32 9 KEY_LEN [31:0] $end
     $var wire 32 8 NR_KEY [31:0] $end
     $var wire 32 8 PAIR_LEN [31:0] $end
     $var wire  2 + data_list[0] [1:0] $end
     $var wire  2 , data_list[1] [1:0] $end
     $var wire  2 - data_list[2] [1:0] $end
     $var wire  2 . data_list[3] [1:0] $end
     $var wire  2 ; default_out [1:0] $end
     $var wire  1 0 hit $end
     $var wire 32 < i [31:0] $end
     $var wire  2 5 key [1:0] $end
     $var wire  2 # key_list[0] [1:0] $end
     $var wire  2 $ key_list[1] [1:0] $end
     $var wire  2 % key_list[2] [1:0] $end
     $var wire  2 & key_list[3] [1:0] $end
     $var wire 16 7 lut [15:0] $end
     $var wire  2 / lut_out [1:0] $end
     $var wire  2 6 out [1:0] $end
     $var wire  4 ' pair_list[0] [3:0] $end
     $var wire  4 ( pair_list[1] [3:0] $end
     $var wire  4 ) pair_list[2] [3:0] $end
     $var wire  4 * pair_list[3] [3:0] $end
    $upscope $end
   $upscope $end
  $upscope $end
 $upscope $end
$enddefinitions $end


#1
b11 #
b10 $
b01 %
b00 &
b1111 '
b1010 (
b0101 )
b0000 *
b11 +
b10 ,
b01 -
b00 .
b11 /
10
b00 1
b01 2
b10 3
b11 4
b11 5
b11 6
b0000010110101111 7
b00000000000000000000000000000100 8
b00000000000000000000000000000010 9
b00000000000000000000000000000000 :
b00 ;
b00000000000000000000000000000100 <
#2
b10 /
b10 5
b10 6
#3
b01 /
b01 5
b01 6
#4
b11 /
b11 5
b11 6
#5
b01 /
b01 5
b01 6
#6
b11 /
b11 5
b11 6
#7
b10 /
b10 5
b10 6
#8
b00 /
b00 5
b00 6
#9
b01 /
b01 5
b01 6
#10
#11
b10 /
b10 5
b10 6
#12
b11 /
b11 5
b11 6
#13
b10 /
b10 5
b10 6
#14
b11 /
b11 5
b11 6
#15
#16
b10 /
b10 5
b10 6
#17
b00 /
b00 5
b00 6
#18
b10 /
b10 5
b10 6
#19
b00 /
b00 5
b00 6
#20
#21
b11 /
b11 5
b11 6
#22
b00 /
b00 5
b00 6
#23
b11 /
b11 5
b11 6
#24
b01 /
b01 5
b01 6
#25
b10 /
b10 5
b10 6
#26
#27
#28
b11 /
b11 5
b11 6
#29
#30
#31
b01 /
b01 5
b01 6
#32
b10 /
b10 5
b10 6
#33
#34
#35
b01 /
b01 5
b01 6
#36
b11 /
b11 5
b11 6
#37
b01 /
b01 5
b01 6
#38
b00 /
b00 5
b00 6
#39
b11 /
b11 5
b11 6
#40
b10 /
b10 5
b10 6
#41
b01 /
b01 5
b01 6
#42
#43
#44
b11 /
b11 5
b11 6
#45
b00 /
b00 5
b00 6
#46
b01 /
b01 5
b01 6
#47
b10 /
b10 5
b10 6
#48
b00 /
b00 5
b00 6
#49
b11 /
b11 5
b11 6
#50
b10 /
b10 5
b10 6
